\BOOKMARK [1][-]{section.1}{Introduction}{}% 1
\BOOKMARK [1][-]{section.2}{Channel bonding in next-generation WLANs}{}% 2
\BOOKMARK [2][-]{subsection.2.1}{Channel Bonding in IEEE 802.11 WLANs}{section.2}% 3
\BOOKMARK [2][-]{subsection.2.2}{Policies for Dynamic Channel Bonding}{section.2}% 4
\BOOKMARK [2][-]{subsection.2.3}{Introduction to the Dataset}{section.2}% 5
\BOOKMARK [1][-]{section.3}{Machine Learning Solutions for Throughput Prediction}{}% 6
\BOOKMARK [2][-]{subsection.3.1}{ATARI}{section.3}% 7
\BOOKMARK [2][-]{subsection.3.2}{Ramon Vall\351s}{section.3}% 8
\BOOKMARK [2][-]{subsection.3.3}{STC}{section.3}% 9
\BOOKMARK [2][-]{subsection.3.4}{UC3M NETCOM}{section.3}% 10
\BOOKMARK [2][-]{subsection.3.5}{Net Intels}{section.3}% 11
\BOOKMARK [1][-]{section.4}{Performance Evaluation}{}% 12
\BOOKMARK [1][-]{section.5}{Discussion}{}% 13
\BOOKMARK [2][-]{subsection.5.1}{Contributions}{section.5}% 14
\BOOKMARK [2][-]{subsection.5.2}{Lessons Learned}{section.5}% 15
\BOOKMARK [2][-]{subsection.5.3}{The Role of Network Simulators in ML-aware Communications}{section.5}% 16
