\relax 
\providecommand\hyper@newdestlabel[2]{}
\providecommand\HyperFirstAtBeginDocument{\AtBeginDocument}
\HyperFirstAtBeginDocument{\ifx\hyper@anchor\@undefined
\global\let\oldcontentsline\contentsline
\gdef\contentsline#1#2#3#4{\oldcontentsline{#1}{#2}{#3}}
\global\let\oldnewlabel\newlabel
\gdef\newlabel#1#2{\newlabelxx{#1}#2}
\gdef\newlabelxx#1#2#3#4#5#6{\oldnewlabel{#1}{{#2}{#3}}}
\AtEndDocument{\ifx\hyper@anchor\@undefined
\let\contentsline\oldcontentsline
\let\newlabel\oldnewlabel
\fi}
\fi}
\global\let\hyper@last\relax 
\gdef\HyperFirstAtBeginDocument#1{#1}
\providecommand\HyField@AuxAddToFields[1]{}
\providecommand\HyField@AuxAddToCoFields[2]{}
\citation{bib1}
\citation{bib2}
\@LN@col{1}
\@writefile{toc}{\contentsline {section}{\numberline {1}Introduction}{1}{section.1}}
\newlabel{sec:intro}{{1}{1}{Introduction}{section.1}{}}
\@LN@col{2}
\citation{bib3}
\citation{bib13}
\citation{ramon_github}
\citation{github_stc}
\citation{github_netcom}
\citation{netintels_github}
\citation{dataset}
\citation{bib4}
\citation{bib5}
\citation{bib6}
\citation{bib7}
\citation{bib51}
\@LN@col{1}
\@writefile{lot}{\contentsline {table}{\numberline {1}{\ignorespaces Summary of the ML models proposed by the participants of the challenge.\relax }}{2}{table.caption.1}}
\providecommand*\caption@xref[2]{\@setref\relax\@undefined{#1}}
\newlabel{tab:tab0}{{1}{2}{Summary of the ML models proposed by the participants of the challenge.\relax }{table.caption.1}{}}
\@LN@col{2}
\@writefile{toc}{\contentsline {section}{\numberline {2}Channel bonding in next-generation WLANs}{2}{section.2}}
\newlabel{section:ps}{{2}{2}{Channel bonding in next-generation WLANs}{section.2}{}}
\@writefile{toc}{\contentsline {subsection}{\numberline {2.1}Channel Bonding in IEEE 802.11 WLANs}{2}{subsection.2.1}}
\@writefile{lof}{\contentsline {figure}{\numberline {1}{\ignorespaces U-NII-1 and U-NII-2 sub-bands of the 5 GHz Wi-Fi channels.\relax }}{2}{figure.caption.2}}
\newlabel{fig:fig1}{{1}{2}{U-NII-1 and U-NII-2 sub-bands of the 5 GHz Wi-Fi channels.\relax }{figure.caption.2}{}}
\citation{bib6}
\citation{bib7}
\citation{bib7}
\citation{bib7}
\citation{bib91}
\citation{bib92}
\citation{bib93}
\citation{bib94}
\citation{bib95}
\citation{bib96}
\citation{bib911}
\citation{bib912}
\citation{bib913}
\@LN@col{1}
\@writefile{lof}{\contentsline {figure}{\numberline {2}{\ignorespaces Dense WLAN deployment with multiple CB configurations. \leavevmode {\color  {blue}Each number in the list of channels represents one basic 20\nobreakspace {}MHz channel.}\relax }}{3}{figure.caption.3}}
\newlabel{fig:fig2}{{2}{3}{Dense WLAN deployment with multiple CB configurations. \textcolor {blue}{Each number in the list of channels represents one basic 20~MHz channel.}\relax }{figure.caption.3}{}}
\@writefile{toc}{\contentsline {subsection}{\numberline {2.2}Policies for Dynamic Channel Bonding}{3}{subsection.2.2}}
\@LN@col{2}
\@writefile{lof}{\contentsline {figure}{\numberline {3}{\ignorespaces Dynamic channel selection for transmitting when applying DCB.\relax }}{3}{figure.caption.4}}
\newlabel{fig:fig3}{{3}{3}{Dynamic channel selection for transmitting when applying DCB.\relax }{figure.caption.4}{}}
\citation{bib97}
\citation{bib98}
\citation{bib910}
\citation{bib99}
\citation{bib8}
\citation{bib9}
\@LN@col{1}
\@writefile{toc}{\contentsline {subsection}{\numberline {2.3}Introduction to the Dataset}{4}{subsection.2.3}}
\@LN@col{2}
\@writefile{lot}{\contentsline {table}{\numberline {2}{\ignorespaces Summary of the simulated deployments used for generating both training and test datasets.\relax }}{4}{table.caption.5}}
\newlabel{tab:tab1}{{2}{4}{Summary of the simulated deployments used for generating both training and test datasets.\relax }{table.caption.5}{}}
\citation{problems}
\citation{bib10}
\citation{bib11}
\citation{bib12}
\citation{bib11}
\citation{bib13}
\@LN@col{1}
\@writefile{toc}{\contentsline {section}{\numberline {3}Machine Learning Solutions for Throughput Prediction}{5}{section.3}}
\newlabel{section:solutions}{{3}{5}{Machine Learning Solutions for Throughput Prediction}{section.3}{}}
\@writefile{toc}{\contentsline {subsection}{\numberline {3.1}ATARI}{5}{subsection.3.1}}
\@LN@col{2}
\@writefile{lot}{\contentsline {table}{\numberline {3}{\ignorespaces Features used by ATARI team to train a GNN.\relax }}{5}{table.caption.6}}
\newlabel{tab:tab2}{{3}{5}{Features used by ATARI team to train a GNN.\relax }{table.caption.6}{}}
\@writefile{lof}{\contentsline {figure}{\numberline {4}{\ignorespaces GNN model proposed by ATARI.\relax }}{5}{figure.caption.7}}
\newlabel{fig:ATARI-GNN}{{4}{5}{GNN model proposed by ATARI.\relax }{figure.caption.7}{}}
\citation{multilayer_perceptron}
\citation{ramon_github}
\citation{xgboost}
\citation{yeo}
\@LN@col{1}
\@writefile{toc}{\contentsline {subsection}{\numberline {3.2}Ramon Vallés}{6}{subsection.3.2}}
\@LN@col{2}
\@writefile{toc}{\contentsline {subsection}{\numberline {3.3}STC}{6}{subsection.3.3}}
\citation{kuhn}
\citation{github_stc}
\citation{github_netcom}
\citation{netintels_github}
\citation{keras}
\citation{scikit}
\@LN@col{1}
\@writefile{toc}{\contentsline {subsection}{\numberline {3.4}UC3M NETCOM}{7}{subsection.3.4}}
\@LN@col{2}
\@writefile{toc}{\contentsline {subsection}{\numberline {3.5}Net Intels}{7}{subsection.3.5}}
\@LN@col{1}
\@writefile{lof}{\contentsline {figure}{\numberline {5}{\ignorespaces Net Intels' ANN architecture.\relax }}{8}{figure.caption.8}}
\newlabel{fig:net_intels_1}{{5}{8}{Net Intels' ANN architecture.\relax }{figure.caption.8}{}}
\@LN@col{2}
\@writefile{lof}{\contentsline {figure}{\numberline {6}{\ignorespaces Correlation among input features.\relax }}{8}{figure.caption.9}}
\newlabel{fig:heatmap_netintels}{{6}{8}{Correlation among input features.\relax }{figure.caption.9}{}}
\@writefile{toc}{\contentsline {section}{\numberline {4}Performance Evaluation}{8}{section.4}}
\newlabel{section:performance}{{4}{8}{Performance Evaluation}{section.4}{}}
\@writefile{lof}{\contentsline {figure}{\numberline {7}{\ignorespaces Mean absolute error obtained by each team, for each of the test scenarios of the dataset. The aggregate throughput of all the BSSs is considered.\relax }}{8}{figure.caption.10}}
\newlabel{fig:mean_results_all}{{7}{8}{Mean absolute error obtained by each team, for each of the test scenarios of the dataset. The aggregate throughput of all the BSSs is considered.\relax }{figure.caption.10}{}}
\@LN@col{1}
\@writefile{lof}{\contentsline {figure}{\numberline {8}{\ignorespaces Histogram of the per-STA prediction error achieved by ATARI, STC, and NET INTELS.\relax }}{9}{figure.caption.11}}
\newlabel{fig:histogram_atari_stc_net}{{8}{9}{Histogram of the per-STA prediction error achieved by ATARI, STC, and NET INTELS.\relax }{figure.caption.11}{}}
\@LN@col{2}
\@writefile{lot}{\contentsline {table}{\numberline {4}{\ignorespaces Percentage of per-STA predictions achieving <10 Mbps error. Information is provided for ATARI, STC, and NET INTELS results.\relax }}{9}{table.caption.12}}
\newlabel{tab:tab3}{{4}{9}{Percentage of per-STA predictions achieving <10 Mbps error. Information is provided for ATARI, STC, and NET INTELS results.\relax }{table.caption.12}{}}
\@writefile{lof}{\contentsline {figure}{\numberline {9}{\ignorespaces Boxplot of the mean throughput achieved by STAs for each test scenario.\relax }}{9}{figure.caption.13}}
\newlabel{fig:boxplot_tpt_stas}{{9}{9}{Boxplot of the mean throughput achieved by STAs for each test scenario.\relax }{figure.caption.13}{}}
\@writefile{lot}{\contentsline {table}{\numberline {5}{\ignorespaces Training time and computational resources used by the ML models proposed by \textit  {Net Intels}.\relax }}{9}{table.caption.14}}
\newlabel{tab:tab4}{{5}{9}{Training time and computational resources used by the ML models proposed by \textit {Net Intels}.\relax }{table.caption.14}{}}
\@writefile{toc}{\contentsline {section}{\numberline {5}Discussion}{9}{section.5}}
\newlabel{section:conclusions}{{5}{9}{Discussion}{section.5}{}}
\@writefile{toc}{\contentsline {subsection}{\numberline {5.1}Contributions}{9}{subsection.5.1}}
\citation{sinrbased}
\citation{architecture}
\citation{simulators}
\bibcite{bib1}{1}
\bibcite{bib2}{2}
\bibcite{bib3}{3}
\@LN@col{1}
\@writefile{toc}{\contentsline {subsection}{\numberline {5.2}Lessons Learned}{10}{subsection.5.2}}
\@LN@col{2}
\@writefile{toc}{\contentsline {subsection}{\numberline {5.3}The Role of Network Simulators in ML-aware Communications}{10}{subsection.5.3}}
\newlabel{sec:ackn}{{5.3}{10}{}{subsection.5.3}{}}
\bibcite{dataset}{4}
\bibcite{bib4}{5}
\bibcite{bib5}{6}
\bibcite{bib6}{7}
\bibcite{bib7}{8}
\bibcite{bib51}{9}
\bibcite{bib91}{10}
\bibcite{bib92}{11}
\bibcite{bib93}{12}
\bibcite{bib94}{13}
\bibcite{bib95}{14}
\bibcite{bib96}{15}
\bibcite{bib911}{16}
\bibcite{bib912}{17}
\bibcite{bib913}{18}
\bibcite{bib97}{19}
\bibcite{bib98}{20}
\bibcite{bib910}{21}
\bibcite{bib99}{22}
\bibcite{bib8}{23}
\bibcite{bib9}{24}
\bibcite{problems}{25}
\bibcite{bib10}{26}
\bibcite{bib11}{27}
\@LN@col{1}
\@LN@col{2}
\bibcite{bib12}{28}
\bibcite{bib13}{29}
\bibcite{multilayer_perceptron}{30}
\bibcite{ramon_github}{31}
\bibcite{xgboost}{32}
\bibcite{yeo}{33}
\bibcite{kuhn}{34}
\bibcite{github_stc}{35}
\bibcite{github_netcom}{36}
\bibcite{netintels_github}{37}
\bibcite{keras}{38}
\bibcite{scikit}{39}
\bibcite{sinrbased}{40}
\bibcite{architecture}{41}
\bibcite{simulators}{42}
\@LN@col{1}
\@LN@col{2}
\@LN@col{1}
\newlabel{sec:auth}{{5.3}{13}{}{subsection.5.3}{}}
\@LN@col{2}
\@LN@col{1}
\@LN@col{2}
